module wol-server

go 1.21.4

require github.com/mdlayher/wol v0.0.0-20220221231636-b763a792253a

require (
	github.com/josharian/native v1.0.0 // indirect
	github.com/mdlayher/ethernet v0.0.0-20190313224307-5b5fc417d966 // indirect
	github.com/mdlayher/packet v1.0.0 // indirect
	github.com/mdlayher/socket v0.2.1 // indirect
	golang.org/x/net v0.0.0-20190503192946-f4e77d36d62c // indirect
	golang.org/x/sync v0.0.0-20210220032951-036812b2e83c // indirect
	golang.org/x/sys v0.0.0-20220209214540-3681064d5158 // indirect
)
